module gitlab.com/GentlemanTech/holmes_210915

go 1.17

require (
	github.com/google/uuid v1.3.0
	github.com/jackc/pgx/v4 v4.13.0
	github.com/jmoiron/sqlx v1.3.4
	golang.org/x/image v0.0.0-20210628002857-a66eb6448b8d
)

require (
	github.com/jackc/chunkreader/v2 v2.0.1 // indirect
	github.com/jackc/pgconn v1.10.0 // indirect
	github.com/jackc/pgio v1.0.0 // indirect
	github.com/jackc/pgpassfile v1.0.0 // indirect
	github.com/jackc/pgproto3/v2 v2.1.1 // indirect
	github.com/jackc/pgservicefile v0.0.0-20200714003250-2b9c44734f2b // indirect
	github.com/jackc/pgtype v1.8.1 // indirect
	golang.org/x/crypto v0.0.0-20210711020723-a769d52b0f97 // indirect
	golang.org/x/text v0.3.6 // indirect
)
